#############
#...........#
###D#D#B#A###
  #D#C#B#A#
  #D#B#A#C#
  #C#A#B#C#
  #########

############# 18
#AA.........# 0
###D#D#B#.### 0
  #D#C#B#.#   0
  #D#B#A#C#
  #C#A#B#C#
  #########
############# 18
#AA.......CC# 0
###D#D#B#.### 10
  #D#C#B#.#   0
  #D#B#A#.#
  #C#A#B#.#
  #########
############# 18
#AA.......CC# 0
###D#.#B#.### 10
  #D#C#B#.#   9
  #D#B#A#.#
  #C#A#B#D#
  #########
############# 18
#AA.......CC# 0
###.#.#B#D### 10
  #.#C#B#D#   9 30
  #.#B#A#D#
  #C#A#B#D#
  #########
############# 18
#AA.....C.CC# 0
###.#.#B#D### 10 9
  #.#C#B#D#   9 30
  #.#B#A#D#
  #.#A#B#D#
  #########
############# 18 10
#.......C.CC# 0
###.#.#B#D### 10 9
  #.#C#B#D#   9 30
  #A#B#A#D#
  #A#A#B#D#
  #########
############# 18 10
#BB.....C.CC# 14
###.#.#.#D### 10 9
  #.#C#.#D#   9 30
  #A#B#A#D#
  #A#A#B#D#
  #########
############# 18 10 9
#BB.....C.CC# 14
###.#.#.#D### 10 9
  #A#C#.#D#   9 30
  #A#B#.#D#
  #A#A#B#D#
  #########
############# 18 10 9
#BB.B...C.CC# 14 7
###.#.#.#D### 10 9
  #A#C#.#D#   9 30
  #A#B#.#D#
  #A#A#.#D#
  #########
############# 18 10 9
#BB.B...C.CC# 14 7
###.#.#.#D### 10 9 8
  #A#.#.#D#   9 30
  #A#B#.#D#
  #A#A#C#D#
  #########
############# 18 10 9
#BB.B.....CC# 14 7
###.#.#.#D### 10 9 8 4
  #A#.#.#D#   9 30
  #A#B#C#D#
  #A#A#C#D#
  #########
############# 18 10 9
#BB.B.......# 14 7
###.#.#C#D### 10 9 8 4 10
  #A#.#C#D#   9 30
  #A#B#C#D#
  #A#A#C#D#
  #########
############# 18 10 9
#BB.B...B...# 14 7 6
###.#.#C#D### 10 9 8 4 10
  #A#.#C#D#   9 30
  #A#.#C#D#
  #A#A#C#D#
  #########
############# 18 10 9 5
#BB.B.A.B...# 14 7 6
###.#.#C#D### 10 9 8 4 10
  #A#.#C#D#   9 30
  #A#.#C#D#
  #A#.#C#D#
  #########
############# 18 10 9 5
#BB...A.B...# 14 7 6 5
###.#.#C#D### 10 9 8 4 10
  #A#.#C#D#   9 30
  #A#.#C#D#
  #A#B#C#D#
  #########
############# 18 10 9 5
#.....A.B...# 14 7 6 5 12
###.#.#C#D### 10 9 8 4 10
  #A#B#C#D#   9 30
  #A#B#C#D#
  #A#B#C#D#
  #########
############# 18 10 9 5 4
#.......B...# 14 7 6 5 12
###A#.#C#D### 10 9 8 4 10
  #A#B#C#D#   9 30
  #A#B#C#D#
  #A#B#C#D#
  #########
############# 18 10 9 5 4
#...........# 14 7 6 5 12 4
###A#B#C#D### 10 9 8 4 10
  #A#B#C#D#   9 30
  #A#B#C#D#
  #A#B#C#D#
  #########

46 = 18 10 9 5 4
48 = 14 7 6 5 12 4
41 = 10 9 8 4 10
39 = 9 30

39000
 4100
  480
   46
+
43626